Programming Tools in Data Science
…
```r
set.seed(1)
tibble(x = rnorm(1e3), y = rexp(1e3))
```

```
## # A tibble: 1,000 × 2
##         x      y
##     <dbl>  <dbl>
##  1 -0.626 0.601 
##  2  0.184 0.750 
##  3 -0.836 0.167 
##  4  1.60  2.21  
##  5  0.330 0.0553
##  6 -0.820 0.727 
##  7  0.487 0.583 
##  8  0.738 0.198 
##  9  0.576 3.54  
## 10 -0.305 4.01  
## # ℹ 990 more rows
```
…
